[
  {
    "num": 1,
    "title": "Para ti, dentro de 2000 años",
    "servers": [
      {
        "name": "JkAnime",
        "url": "https://jkanime.net/jk.php?u=stream/jkmedia/7120f34bc6f88d24da9b2c4e8598c788/4f501d26373b56e0fe0351c1a6154bd4/1/28c3370b337d9ecc3ec36de13ccdfd1b/"
      },
      {
        "name": "Daylimotion",
        "url": "http://www.dailymotion.com/embed/video/x5k7xom"
      }
    ],
    "date": "15 Nov. 2015"
  },
  {
    "num": 2,
    "title": "Aquel día",
    "servers": [
      {
        "name": "JkAnime",
        "url": "https://jkanime.net/jk.php?u=stream/jkmedia/7120f34bc6f88d24da9b2c4e8598c788/4f501d26373b56e0fe0351c1a6154bd4/1/28c3370b337d9ecc3ec36de13ccdfd1b/"
      },
      {
        "name": "AnimeID",
        "url": "https://jkanime.net/jk.php?u=stream/jkmedia/7120f34bc6f88d24da9b2c4e8598c788/4f501d26373b56e0fe0351c1a6154bd4/1/28c3370b337d9ecc3ec36de13ccdfd1b/"
      }
    ],
    "date": ""
  },
  {
    "num": 3,
    "title": "Una tenue luz en la desesperación",
    "servers": [
      ""
    ],
    "date": ""
  },
  {
    "num": 4,
    "title": "La noche de la desbandada",
    "servers": [
      ""
    ],
    "date": ""
  },
  {
    "num": 5,
    "title": "La primera batalla",
    "servers": [
      ""
    ],
    "date": ""
  },
  {
    "num": 6,
    "title": "El mundo que ella vio",
    "servers": [
      ""
    ],
    "date": ""
  },
  {
    "num": 7,
    "title": "Una pequeña hoja",
    "servers": [
      ""
    ],
    "date": ""
  },
  {
    "num": 8,
    "title": "Puedo oír un latido",
    "servers": [
      ""
    ],
    "date": ""
  },
  {
    "num": 9,
    "title": "¿Dónde está el brazo izquierdo?",
    "servers": [
      ""
    ],
    "date": ""
  },
  {
    "num": 10,
    "title": "Respuesta",
    "servers": [
      ""
    ],
    "date": ""
  },
  {
    "num": 11,
    "title": "Ídolo",
    "servers": [
      ""
    ],
    "date": ""
  },
  {
    "num": 12,
    "title": "Herida",
    "servers": [
      ""
    ],
    "date": ""
  },
  {
    "num": 13,
    "title": "Deseos primarios",
    "servers": [
      ""
    ],
    "date": ""
  },
  {
    "num": 14,
    "title": "Sigo sin poder ver",
    "servers": [
      ""
    ],
    "date": ""
  },
  {
    "num": 15,
    "title": "El Escuadrón de Operaciones Especiales",
    "servers": [
      ""
    ],
    "date": ""
  },
  {
    "num": 16,
    "title": "¿Y ahora qué hacemos?",
    "servers": [
      ""
    ],
    "date": ""
  },
  {
    "num": 17,
    "title": "El titán hembra",
    "servers": [
      ""
    ],
    "date": ""
  },
  {
    "num": 18,
    "title": "El bosque de los árboles gigantes",
    "servers": [
      ""
    ],
    "date": ""
  },
  {
    "num": 19,
    "title": "Mordisco",
    "servers": [
      ""
    ],
    "date": ""
  },
  {
    "num": 20,
    "title": "Erwin Smith",
    "servers": [
      ""
    ],
    "date": ""
  },
  {
    "num": 21,
    "title": "Golpe aplastante",
    "servers": [
      ""
    ],
    "date": ""
  },
  {
    "num": 22,
    "title": "La Derrota",
    "servers": [
      ""
    ],
    "date": ""
  },
  {
    "num": 23,
    "title": "Sonrisa",
    "servers": [
      ""
    ],
    "date": ""
  },
  {
    "num": 24,
    "title": "Misericordia",
    "servers": [
      ""
    ],
    "date": ""
  },
  {
    "num": 25,
    "title": "Muralla",
    "servers": [
      ""
    ],
    "date": ""
  }
]
